module github.com/Spargwy/crypto-wrapper

go 1.22.3

require (
	github.com/segmentio/kafka-go v0.4.47
	go.mongodb.org/mongo-driver v1.15.0
)

require (
	github.com/go-redis/redis v6.15.9+incompatible // indirect
	github.com/golang/snappy v0.0.1 // indirect
	github.com/klauspost/compress v1.15.9 // indirect
	github.com/montanaflynn/stats v0.0.0-20171201202039-1bf9dbcd8cbe // indirect
	github.com/pierrec/lz4/v4 v4.1.15 // indirect
	github.com/redis/go-redis v6.15.9+incompatible // indirect
	github.com/xdg-go/pbkdf2 v1.0.0 // indirect
	github.com/xdg-go/scram v1.1.2 // indirect
	github.com/xdg-go/stringprep v1.0.4 // indirect
	github.com/youmark/pkcs8 v0.0.0-20181117223130-1be2e3e5546d // indirect
	golang.org/x/crypto v0.17.0 // indirect
	golang.org/x/sync v0.1.0 // indirect
	golang.org/x/text v0.14.0 // indirect
)
