module github.com/Spargwy/grapher

go 1.22.3

require (
	github.com/cespare/xxhash/v2 v2.2.0 // indirect
	github.com/dgryski/go-rendezvous v0.0.0-20200823014737-9f7001d12a5f // indirect
	github.com/gorilla/mux v1.8.1 // indirect
	github.com/gorilla/websocket v1.5.2 // indirect
	github.com/klauspost/compress v1.15.9 // indirect
	github.com/labstack/echo/v4 v4.12.0 // indirect
	github.com/labstack/gommon v0.4.2 // indirect
	github.com/mattn/go-colorable v0.1.13 // indirect
	github.com/mattn/go-isatty v0.0.20 // indirect
	github.com/pierrec/lz4/v4 v4.1.15 // indirect
	github.com/redis/go-redis/v9 v9.5.3 // indirect
	github.com/segmentio/kafka-go v0.4.47 // indirect
	github.com/valyala/bytebufferpool v1.0.0 // indirect
	github.com/valyala/fasttemplate v1.2.2 // indirect
	golang.org/x/crypto v0.22.0 // indirect
	golang.org/x/net v0.24.0 // indirect
	golang.org/x/sys v0.19.0 // indirect
	golang.org/x/text v0.14.0 // indirect
)
